Schematic_Entry/isim.log
ISim log file
Running: /home/ise/ISE/Multiple_Cycle_16_Bit_RISC_Computer/Schematic_Entry/A_16bits_RF_plus_ALU_A_16bits_RF_plus_ALU_sch_tb_isim_beh.exe -intstyle ise -gui -tclbatch isim.cmd -wdb /home/ise/ISE/Multiple_Cycle_16_Bit_RISC_Computer/Schematic_Entry/A_16bits_RF_plus_ALU_A_16bits_RF_plus_ALU_sch_tb_isim_beh.wdb 
ISim P.20131013 (signature 0xfbc00daa)
----------------------------------------------------------------------
WARNING:Security:42 - Your software subscription period has lapsed. Your current version of Xilinx tools will continue to function, but you no longer qualify for Xilinx software updates or new releases.


----------------------------------------------------------------------
This is a Full version of ISim.
Time resolution is 1 ps
# onerror resume
# wave add /
# run 1000 ns
Simulator is doing circuit initialization process.
Finished circuit initialization process.
IN: Write_Data = 0000, ALU_B_Sel = 00, clk = 1, ALUOut_CE = 0, RF_Write_en = 0, Rd_to_RF = 000, Rm_Rd_to_RF = 000, Rn_to_RF = 000, ALU_Control = 0, PC_to_ALU_A = 0000, ALU_A_Sel = 0, Instr = 0000, Imm_Sel = 00, Rd = 0000
OUT: ALU_Out = 0000, Imm_Out = 0000, NZVC = 0100, ReadA_data = 0000
IN: Write_Data = 0000, ALU_B_Sel = 00, clk = 1, ALUOut_CE = 0, RF_Write_en = 0, Rd_to_RF = 000, Rm_Rd_to_RF = 000, Rn_to_RF = 000, ALU_Control = 0, PC_to_ALU_A = 0000, ALU_A_Sel = 0, Instr = 0000, Imm_Sel = 00, Rd = 0000
OUT: ALU_Out = 0000, Imm_Out = 0000, NZVC = 0100, ReadA_data = 0000
IN: Write_Data = 0000, ALU_B_Sel = 00, clk = 1, ALUOut_CE = 0, RF_Write_en = 0, Rd_to_RF = 000, Rm_Rd_to_RF = 000, Rn_to_RF = 000, ALU_Control = 0, PC_to_ALU_A = 0000, ALU_A_Sel = 0, Instr = 0000, Imm_Sel = 00, Rd = 0000
OUT: ALU_Out = 0000, Imm_Out = 0000, NZVC = 0100, ReadA_data = 0000
IN: Write_Data = 0000, ALU_B_Sel = 00, clk = 1, ALUOut_CE = 0, RF_Write_en = 0, Rd_to_RF = 000, Rm_Rd_to_RF = 000, Rn_to_RF = 000, ALU_Control = 0, PC_to_ALU_A = 0000, ALU_A_Sel = 0, Instr = 0000, Imm_Sel = 00, Rd = 0000
OUT: ALU_Out = 0000, Imm_Out = 0000, NZVC = 0100, ReadA_data = 0000
IN: Write_Data = 0000, ALU_B_Sel = 00, clk = 1, ALUOut_CE = 0, RF_Write_en = 0, Rd_to_RF = 000, Rm_Rd_to_RF = 000, Rn_to_RF = 000, ALU_Control = 0, PC_to_ALU_A = 0000, ALU_A_Sel = 0, Instr = 0000, Imm_Sel = 00, Rd = 0000
OUT: ALU_Out = 0000, Imm_Out = 0000, NZVC = 0100, ReadA_data = 0000
IN: Write_Data = 0000, ALU_B_Sel = 00, clk = 1, ALUOut_CE = 0, RF_Write_en = 0, Rd_to_RF = 000, Rm_Rd_to_RF = 000, Rn_to_RF = 000, ALU_Control = 0, PC_to_ALU_A = 0000, ALU_A_Sel = 0, Instr = 0000, Imm_Sel = 00, Rd = 0000
OUT: ALU_Out = 0000, Imm_Out = 0000, NZVC = 0100, ReadA_data = 0000
IN: Write_Data = 0000, ALU_B_Sel = 00, clk = 1, ALUOut_CE = 0, RF_Write_en = 0, Rd_to_RF = 000, Rm_Rd_to_RF = 000, Rn_to_RF = 000, ALU_Control = 0, PC_to_ALU_A = 0000, ALU_A_Sel = 0, Instr = 0000, Imm_Sel = 00, Rd = 0000
OUT: ALU_Out = 0000, Imm_Out = 0000, NZVC = 0100, ReadA_data = 0000
IN: Write_Data = 0000, ALU_B_Sel = 00, clk = 1, ALUOut_CE = 0, RF_Write_en = 0, Rd_to_RF = 000, Rm_Rd_to_RF = 000, Rn_to_RF = 000, ALU_Control = 0, PC_to_ALU_A = 0000, ALU_A_Sel = 0, Instr = 0000, Imm_Sel = 00, Rd = 0000
OUT: ALU_Out = 0000, Imm_Out = 0000, NZVC = 0100, ReadA_data = 0000
IN: Write_Data = 0000, ALU_B_Sel = 00, clk = 1, ALUOut_CE = 0, RF_Write_en = 0, Rd_to_RF = 000, Rm_Rd_to_RF = 000, Rn_to_RF = 000, ALU_Control = 0, PC_to_ALU_A = 0000, ALU_A_Sel = 0, Instr = 0000, Imm_Sel = 00, Rd = 0000
OUT: ALU_Out = 0000, Imm_Out = 0000, NZVC = 0100, ReadA_data = 0000
IN: Write_Data = 0000, ALU_B_Sel = 00, clk = 1, ALUOut_CE = 0, RF_Write_en = 1, Rd_to_RF = 000, Rm_Rd_to_RF = 000, Rn_to_RF = 000, ALU_Control = 0, PC_to_ALU_A = 0000, ALU_A_Sel = 0, Instr = 0000, Imm_Sel = 00, Rd = 0000
OUT: ALU_Out = 0000, Imm_Out = 0000, NZVC = 0100, ReadA_data = 0000
IN: Write_Data = 0000, ALU_B_Sel = 00, clk = 1, ALUOut_CE = 0, RF_Write_en = 1, Rd_to_RF = 000, Rm_Rd_to_RF = 000, Rn_to_RF = 000, ALU_Control = 0, PC_to_ALU_A = 0000, ALU_A_Sel = 0, Instr = 0000, Imm_Sel = 00, Rd = 0000
OUT: ALU_Out = 0000, Imm_Out = 0000, NZVC = 0100, ReadA_data = 0000
IN: Write_Data = 0000, ALU_B_Sel = 00, clk = 1, ALUOut_CE = 0, RF_Write_en = 1, Rd_to_RF = 000, Rm_Rd_to_RF = 000, Rn_to_RF = 000, ALU_Control = 0, PC_to_ALU_A = 0000, ALU_A_Sel = 0, Instr = 0000, Imm_Sel = 00, Rd = 0000
OUT: ALU_Out = 0000, Imm_Out = 0000, NZVC = 0100, ReadA_data = 0000
IN: Write_Data = 0001, ALU_B_Sel = 00, clk = 1, ALUOut_CE = 0, RF_Write_en = 1, Rd_to_RF = 001, Rm_Rd_to_RF = 000, Rn_to_RF = 000, ALU_Control = 0, PC_to_ALU_A = 0000, ALU_A_Sel = 0, Instr = 0000, Imm_Sel = 00, Rd = 0000
OUT: ALU_Out = 0000, Imm_Out = 0000, NZVC = 0100, ReadA_data = 0000
IN: Write_Data = 0001, ALU_B_Sel = 00, clk = 1, ALUOut_CE = 0, RF_Write_en = 1, Rd_to_RF = 001, Rm_Rd_to_RF = 000, Rn_to_RF = 000, ALU_Control = 0, PC_to_ALU_A = 0000, ALU_A_Sel = 0, Instr = 0000, Imm_Sel = 00, Rd = 0000
OUT: ALU_Out = 0000, Imm_Out = 0000, NZVC = 0100, ReadA_data = 0000
IN: Write_Data = 0002, ALU_B_Sel = 00, clk = 1, ALUOut_CE = 0, RF_Write_en = 1, Rd_to_RF = 010, Rm_Rd_to_RF = 000, Rn_to_RF = 000, ALU_Control = 0, PC_to_ALU_A = 0000, ALU_A_Sel = 0, Instr = 0000, Imm_Sel = 00, Rd = 0000
OUT: ALU_Out = 0000, Imm_Out = 0000, NZVC = 0100, ReadA_data = 0000
IN: Write_Data = 0002, ALU_B_Sel = 00, clk = 1, ALUOut_CE = 0, RF_Write_en = 1, Rd_to_RF = 010, Rm_Rd_to_RF = 000, Rn_to_RF = 000, ALU_Control = 0, PC_to_ALU_A = 0000, ALU_A_Sel = 0, Instr = 0000, Imm_Sel = 00, Rd = 0000
OUT: ALU_Out = 0000, Imm_Out = 0000, NZVC = 0100, ReadA_data = 0000
IN: Write_Data = 0003, ALU_B_Sel = 00, clk = 1, ALUOut_CE = 0, RF_Write_en = 1, Rd_to_RF = 011, Rm_Rd_to_RF = 000, Rn_to_RF = 000, ALU_Control = 0, PC_to_ALU_A = 0000, ALU_A_Sel = 0, Instr = 0000, Imm_Sel = 00, Rd = 0000
OUT: ALU_Out = 0000, Imm_Out = 0000, NZVC = 0100, ReadA_data = 0000
IN: Write_Data = 0003, ALU_B_Sel = 00, clk = 1, ALUOut_CE = 0, RF_Write_en = 1, Rd_to_RF = 011, Rm_Rd_to_RF = 000, Rn_to_RF = 000, ALU_Control = 0, PC_to_ALU_A = 0000, ALU_A_Sel = 0, Instr = 0000, Imm_Sel = 00, Rd = 0000
OUT: ALU_Out = 0000, Imm_Out = 0000, NZVC = 0100, ReadA_data = 0000
IN: Write_Data = 0004, ALU_B_Sel = 00, clk = 1, ALUOut_CE = 0, RF_Write_en = 1, Rd_to_RF = 100, Rm_Rd_to_RF = 000, Rn_to_RF = 000, ALU_Control = 0, PC_to_ALU_A = 0000, ALU_A_Sel = 0, Instr = 0000, Imm_Sel = 00, Rd = 0000
OUT: ALU_Out = 0000, Imm_Out = 0000, NZVC = 0100, ReadA_data = 0000
IN: Write_Data = 0004, ALU_B_Sel = 00, clk = 1, ALUOut_CE = 0, RF_Write_en = 1, Rd_to_RF = 100, Rm_Rd_to_RF = 000, Rn_to_RF = 000, ALU_Control = 0, PC_to_ALU_A = 0000, ALU_A_Sel = 0, Instr = 0000, Imm_Sel = 00, Rd = 0000
OUT: ALU_Out = 0000, Imm_Out = 0000, NZVC = 0100, ReadA_data = 0000
IN: Write_Data = 0005, ALU_B_Sel = 00, clk = 1, ALUOut_CE = 0, RF_Write_en = 1, Rd_to_RF = 101, Rm_Rd_to_RF = 000, Rn_to_RF = 000, ALU_Control = 0, PC_to_ALU_A = 0000, ALU_A_Sel = 0, Instr = 0000, Imm_Sel = 00, Rd = 0000
OUT: ALU_Out = 0000, Imm_Out = 0000, NZVC = 0100, ReadA_data = 0000
IN: Write_Data = 0005, ALU_B_Sel = 00, clk = 1, ALUOut_CE = 0, RF_Write_en = 1, Rd_to_RF = 101, Rm_Rd_to_RF = 000, Rn_to_RF = 000, ALU_Control = 0, PC_to_ALU_A = 0000, ALU_A_Sel = 0, Instr = 0000, Imm_Sel = 00, Rd = 0000
OUT: ALU_Out = 0000, Imm_Out = 0000, NZVC = 0100, ReadA_data = 0000
IN: Write_Data = 0006, ALU_B_Sel = 00, clk = 1, ALUOut_CE = 0, RF_Write_en = 1, Rd_to_RF = 110, Rm_Rd_to_RF = 000, Rn_to_RF = 000, ALU_Control = 0, PC_to_ALU_A = 0000, ALU_A_Sel = 0, Instr = 0000, Imm_Sel = 00, Rd = 0000
OUT: ALU_Out = 0000, Imm_Out = 0000, NZVC = 0100, ReadA_data = 0000
IN: Write_Data = 0006, ALU_B_Sel = 00, clk = 1, ALUOut_CE = 0, RF_Write_en = 1, Rd_to_RF = 110, Rm_Rd_to_RF = 000, Rn_to_RF = 000, ALU_Control = 0, PC_to_ALU_A = 0000, ALU_A_Sel = 0, Instr = 0000, Imm_Sel = 00, Rd = 0000
OUT: ALU_Out = 0000, Imm_Out = 0000, NZVC = 0100, ReadA_data = 0000
IN: Write_Data = 0007, ALU_B_Sel = 00, clk = 1, ALUOut_CE = 0, RF_Write_en = 1, Rd_to_RF = 111, Rm_Rd_to_RF = 000, Rn_to_RF = 000, ALU_Control = 0, PC_to_ALU_A = 0000, ALU_A_Sel = 0, Instr = 0000, Imm_Sel = 00, Rd = 0000
OUT: ALU_Out = 0000, Imm_Out = 0000, NZVC = 0100, ReadA_data = 0000
IN: Write_Data = 0007, ALU_B_Sel = 00, clk = 1, ALUOut_CE = 0, RF_Write_en = 1, Rd_to_RF = 111, Rm_Rd_to_RF = 000, Rn_to_RF = 000, ALU_Control = 0, PC_to_ALU_A = 0000, ALU_A_Sel = 0, Instr = 0000, Imm_Sel = 00, Rd = 0000
OUT: ALU_Out = 0000, Imm_Out = 0000, NZVC = 0100, ReadA_data = 0000
IN: Write_Data = 0007, ALU_B_Sel = 00, clk = 1, ALUOut_CE = 0, RF_Write_en = 0, Rd_to_RF = 111, Rm_Rd_to_RF = 000, Rn_to_RF = 000, ALU_Control = 0, PC_to_ALU_A = 0000, ALU_A_Sel = 0, Instr = 0000, Imm_Sel = 00, Rd = 0000
OUT: ALU_Out = 0000, Imm_Out = 0000, NZVC = 0100, ReadA_data = 0000
IN: Write_Data = 0007, ALU_B_Sel = 00, clk = 1, ALUOut_CE = 0, RF_Write_en = 0, Rd_to_RF = 111, Rm_Rd_to_RF = 000, Rn_to_RF = 000, ALU_Control = 0, PC_to_ALU_A = 0000, ALU_A_Sel = 0, Instr = 0000, Imm_Sel = 00, Rd = 0000
OUT: ALU_Out = 0000, Imm_Out = 0000, NZVC = 0100, ReadA_data = 0000
IN: Write_Data = 0007, ALU_B_Sel = 00, clk = 1, ALUOut_CE = 0, RF_Write_en = 0, Rd_to_RF = 111, Rm_Rd_to_RF = 011, Rn_to_RF = 101, ALU_Control = 0, PC_to_ALU_A = 0000, ALU_A_Sel = 0, Instr = 0000, Imm_Sel = 00, Rd = 0000
OUT: ALU_Out = 0000, Imm_Out = 0000, NZVC = 0000, ReadA_data = 0003
IN: Write_Data = 0007, ALU_B_Sel = 00, clk = 1, ALUOut_CE = 1, RF_Write_en = 0, Rd_to_RF = 111, Rm_Rd_to_RF = 011, Rn_to_RF = 101, ALU_Control = 0, PC_to_ALU_A = 0000, ALU_A_Sel = 1, Instr = 0000, Imm_Sel = 00, Rd = 0000
OUT: ALU_Out = 0000, Imm_Out = 0000, NZVC = 0000, ReadA_data = 0003
IN: Write_Data = 0007, ALU_B_Sel = 00, clk = 1, ALUOut_CE = 1, RF_Write_en = 0, Rd_to_RF = 111, Rm_Rd_to_RF = 011, Rn_to_RF = 101, ALU_Control = 0, PC_to_ALU_A = 0000, ALU_A_Sel = 1, Instr = 0000, Imm_Sel = 00, Rd = 0000
OUT: ALU_Out = 0008, Imm_Out = 0000, NZVC = 0000, ReadA_data = 0003
IN: Write_Data = 0007, ALU_B_Sel = 00, clk = 1, ALUOut_CE = 0, RF_Write_en = 0, Rd_to_RF = 111, Rm_Rd_to_RF = 011, Rn_to_RF = 101, ALU_Control = 0, PC_to_ALU_A = 0000, ALU_A_Sel = 1, Instr = 0000, Imm_Sel = 00, Rd = 0000
OUT: ALU_Out = 0008, Imm_Out = 0000, NZVC = 0000, ReadA_data = 0003
IN: Write_Data = 0007, ALU_B_Sel = 00, clk = 1, ALUOut_CE = 0, RF_Write_en = 0, Rd_to_RF = 111, Rm_Rd_to_RF = 011, Rn_to_RF = 101, ALU_Control = 0, PC_to_ALU_A = 0000, ALU_A_Sel = 1, Instr = 0000, Imm_Sel = 00, Rd = 0000
OUT: ALU_Out = 0008, Imm_Out = 0000, NZVC = 0000, ReadA_data = 0003
IN: Write_Data = 0007, ALU_B_Sel = 00, clk = 1, ALUOut_CE = 0, RF_Write_en = 0, Rd_to_RF = 111, Rm_Rd_to_RF = 010, Rn_to_RF = 111, ALU_Control = 0, PC_to_ALU_A = 0000, ALU_A_Sel = 1, Instr = 0000, Imm_Sel = 00, Rd = 0000
OUT: ALU_Out = 0008, Imm_Out = 0000, NZVC = 0000, ReadA_data = 0002
IN: Write_Data = 0007, ALU_B_Sel = 00, clk = 1, ALUOut_CE = 1, RF_Write_en = 0, Rd_to_RF = 111, Rm_Rd_to_RF = 010, Rn_to_RF = 111, ALU_Control = 0, PC_to_ALU_A = 0000, ALU_A_Sel = 1, Instr = 0000, Imm_Sel = 00, Rd = 0000
OUT: ALU_Out = 0008, Imm_Out = 0000, NZVC = 0000, ReadA_data = 0002
IN: Write_Data = 0007, ALU_B_Sel = 00, clk = 1, ALUOut_CE = 1, RF_Write_en = 0, Rd_to_RF = 111, Rm_Rd_to_RF = 010, Rn_to_RF = 111, ALU_Control = 0, PC_to_ALU_A = 0000, ALU_A_Sel = 1, Instr = 0000, Imm_Sel = 00, Rd = 0000
OUT: ALU_Out = 0009, Imm_Out = 0000, NZVC = 0000, ReadA_data = 0002
IN: Write_Data = 0007, ALU_B_Sel = 00, clk = 1, ALUOut_CE = 0, RF_Write_en = 0, Rd_to_RF = 111, Rm_Rd_to_RF = 010, Rn_to_RF = 111, ALU_Control = 0, PC_to_ALU_A = 0000, ALU_A_Sel = 1, Instr = 0000, Imm_Sel = 00, Rd = 0000
OUT: ALU_Out = 0009, Imm_Out = 0000, NZVC = 0000, ReadA_data = 0002
IN: Write_Data = 0007, ALU_B_Sel = 00, clk = 1, ALUOut_CE = 0, RF_Write_en = 0, Rd_to_RF = 111, Rm_Rd_to_RF = 010, Rn_to_RF = 111, ALU_Control = 0, PC_to_ALU_A = 0000, ALU_A_Sel = 1, Instr = 0000, Imm_Sel = 00, Rd = 0000
OUT: ALU_Out = 0009, Imm_Out = 0000, NZVC = 0000, ReadA_data = 0002
IN: Write_Data = 0007, ALU_B_Sel = 00, clk = 1, ALUOut_CE = 0, RF_Write_en = 0, Rd_to_RF = 111, Rm_Rd_to_RF = 110, Rn_to_RF = 010, ALU_Control = 0, PC_to_ALU_A = 0000, ALU_A_Sel = 1, Instr = 0000, Imm_Sel = 00, Rd = 0000
OUT: ALU_Out = 0009, Imm_Out = 0000, NZVC = 0000, ReadA_data = 0006
IN: Write_Data = 0007, ALU_B_Sel = 00, clk = 1, ALUOut_CE = 1, RF_Write_en = 0, Rd_to_RF = 111, Rm_Rd_to_RF = 110, Rn_to_RF = 010, ALU_Control = 0, PC_to_ALU_A = 0000, ALU_A_Sel = 1, Instr = 0000, Imm_Sel = 00, Rd = 0000
OUT: ALU_Out = 0009, Imm_Out = 0000, NZVC = 0000, ReadA_data = 0006
IN: Write_Data = 0007, ALU_B_Sel = 00, clk = 1, ALUOut_CE = 1, RF_Write_en = 0, Rd_to_RF = 111, Rm_Rd_to_RF = 110, Rn_to_RF = 010, ALU_Control = 0, PC_to_ALU_A = 0000, ALU_A_Sel = 1, Instr = 0000, Imm_Sel = 00, Rd = 0000
OUT: ALU_Out = 0008, Imm_Out = 0000, NZVC = 0000, ReadA_data = 0006
IN: Write_Data = 0007, ALU_B_Sel = 00, clk = 1, ALUOut_CE = 0, RF_Write_en = 0, Rd_to_RF = 111, Rm_Rd_to_RF = 110, Rn_to_RF = 010, ALU_Control = 0, PC_to_ALU_A = 0000, ALU_A_Sel = 1, Instr = 0000, Imm_Sel = 00, Rd = 0000
OUT: ALU_Out = 0008, Imm_Out = 0000, NZVC = 0000, ReadA_data = 0006
IN: Write_Data = 0007, ALU_B_Sel = 00, clk = 1, ALUOut_CE = 0, RF_Write_en = 0, Rd_to_RF = 111, Rm_Rd_to_RF = 110, Rn_to_RF = 010, ALU_Control = 0, PC_to_ALU_A = 0000, ALU_A_Sel = 1, Instr = 0000, Imm_Sel = 00, Rd = 0000
OUT: ALU_Out = 0008, Imm_Out = 0000, NZVC = 0000, ReadA_data = 0006
IN: Write_Data = 0007, ALU_B_Sel = 00, clk = 1, ALUOut_CE = 0, RF_Write_en = 0, Rd_to_RF = 111, Rm_Rd_to_RF = 011, Rn_to_RF = 100, ALU_Control = 0, PC_to_ALU_A = 0000, ALU_A_Sel = 1, Instr = 0000, Imm_Sel = 00, Rd = 0000
OUT: ALU_Out = 0008, Imm_Out = 0000, NZVC = 0000, ReadA_data = 0003
IN: Write_Data = 0007, ALU_B_Sel = 00, clk = 1, ALUOut_CE = 1, RF_Write_en = 0, Rd_to_RF = 111, Rm_Rd_to_RF = 011, Rn_to_RF = 100, ALU_Control = 0, PC_to_ALU_A = 0000, ALU_A_Sel = 1, Instr = 0000, Imm_Sel = 00, Rd = 0000
OUT: ALU_Out = 0008, Imm_Out = 0000, NZVC = 0000, ReadA_data = 0003
IN: Write_Data = 0007, ALU_B_Sel = 00, clk = 1, ALUOut_CE = 1, RF_Write_en = 0, Rd_to_RF = 111, Rm_Rd_to_RF = 011, Rn_to_RF = 100, ALU_Control = 0, PC_to_ALU_A = 0000, ALU_A_Sel = 1, Instr = 0000, Imm_Sel = 00, Rd = 0000
OUT: ALU_Out = 0007, Imm_Out = 0000, NZVC = 0000, ReadA_data = 0003
IN: Write_Data = 0007, ALU_B_Sel = 00, clk = 1, ALUOut_CE = 0, RF_Write_en = 0, Rd_to_RF = 111, Rm_Rd_to_RF = 011, Rn_to_RF = 100, ALU_Control = 0, PC_to_ALU_A = 0000, ALU_A_Sel = 1, Instr = 0000, Imm_Sel = 00, Rd = 0000
OUT: ALU_Out = 0007, Imm_Out = 0000, NZVC = 0000, ReadA_data = 0003
IN: Write_Data = 0007, ALU_B_Sel = 00, clk = 1, ALUOut_CE = 0, RF_Write_en = 0, Rd_to_RF = 111, Rm_Rd_to_RF = 011, Rn_to_RF = 100, ALU_Control = 0, PC_to_ALU_A = 0000, ALU_A_Sel = 1, Instr = 0000, Imm_Sel = 00, Rd = 0000
OUT: ALU_Out = 0007, Imm_Out = 0000, NZVC = 0000, ReadA_data = 0003
IN: Write_Data = 0007, ALU_B_Sel = 00, clk = 1, ALUOut_CE = 0, RF_Write_en = 0, Rd_to_RF = 111, Rm_Rd_to_RF = 111, Rn_to_RF = 001, ALU_Control = 0, PC_to_ALU_A = 0000, ALU_A_Sel = 1, Instr = 0000, Imm_Sel = 00, Rd = 0000
OUT: ALU_Out = 0007, Imm_Out = 0000, NZVC = 0000, ReadA_data = 0007
IN: Write_Data = 0007, ALU_B_Sel = 00, clk = 1, ALUOut_CE = 1, RF_Write_en = 0, Rd_to_RF = 111, Rm_Rd_to_RF = 111, Rn_to_RF = 001, ALU_Control = 0, PC_to_ALU_A = 0000, ALU_A_Sel = 1, Instr = 0000, Imm_Sel = 00, Rd = 0000
OUT: ALU_Out = 0007, Imm_Out = 0000, NZVC = 0000, ReadA_data = 0007
IN: Write_Data = 0007, ALU_B_Sel = 00, clk = 1, ALUOut_CE = 1, RF_Write_en = 0, Rd_to_RF = 111, Rm_Rd_to_RF = 111, Rn_to_RF = 001, ALU_Control = 0, PC_to_ALU_A = 0000, ALU_A_Sel = 1, Instr = 0000, Imm_Sel = 00, Rd = 0000
OUT: ALU_Out = 0008, Imm_Out = 0000, NZVC = 0000, ReadA_data = 0007
IN: Write_Data = 0007, ALU_B_Sel = 00, clk = 1, ALUOut_CE = 0, RF_Write_en = 0, Rd_to_RF = 111, Rm_Rd_to_RF = 111, Rn_to_RF = 001, ALU_Control = 0, PC_to_ALU_A = 0000, ALU_A_Sel = 1, Instr = 0000, Imm_Sel = 00, Rd = 0000
OUT: ALU_Out = 0008, Imm_Out = 0000, NZVC = 0000, ReadA_data = 0007
IN: Write_Data = 0007, ALU_B_Sel = 00, clk = 1, ALUOut_CE = 0, RF_Write_en = 0, Rd_to_RF = 111, Rm_Rd_to_RF = 111, Rn_to_RF = 001, ALU_Control = 0, PC_to_ALU_A = 0000, ALU_A_Sel = 1, Instr = 0000, Imm_Sel = 00, Rd = 0000
OUT: ALU_Out = 0008, Imm_Out = 0000, NZVC = 0000, ReadA_data = 0007
Addition tests completed
IN: Write_Data = 0007, ALU_B_Sel = 00, clk = 1, ALUOut_CE = 0, RF_Write_en = 0, Rd_to_RF = 111, Rm_Rd_to_RF = 111, Rn_to_RF = 001, ALU_Control = 0, PC_to_ALU_A = 0000, ALU_A_Sel = 1, Instr = 0000, Imm_Sel = 00, Rd = 0000
OUT: ALU_Out = 0008, Imm_Out = 0000, NZVC = 0000, ReadA_data = 0007
IN: Write_Data = 0007, ALU_B_Sel = 00, clk = 1, ALUOut_CE = 0, RF_Write_en = 0, Rd_to_RF = 111, Rm_Rd_to_RF = 111, Rn_to_RF = 001, ALU_Control = 0, PC_to_ALU_A = 0000, ALU_A_Sel = 1, Instr = 0000, Imm_Sel = 00, Rd = 0000
OUT: ALU_Out = 0008, Imm_Out = 0000, NZVC = 0000, ReadA_data = 0007
IN: Write_Data = 0007, ALU_B_Sel = 00, clk = 1, ALUOut_CE = 0, RF_Write_en = 0, Rd_to_RF = 111, Rm_Rd_to_RF = 101, Rn_to_RF = 011, ALU_Control = 0, PC_to_ALU_A = 0000, ALU_A_Sel = 1, Instr = 0000, Imm_Sel = 00, Rd = 0000
OUT: ALU_Out = 0008, Imm_Out = 0000, NZVC = 0000, ReadA_data = 0005
IN: Write_Data = 0007, ALU_B_Sel = 00, clk = 1, ALUOut_CE = 1, RF_Write_en = 0, Rd_to_RF = 111, Rm_Rd_to_RF = 101, Rn_to_RF = 011, ALU_Control = 1, PC_to_ALU_A = 0000, ALU_A_Sel = 1, Instr = 0000, Imm_Sel = 00, Rd = 0000
OUT: ALU_Out = 0008, Imm_Out = 0000, NZVC = 0001, ReadA_data = 0005
IN: Write_Data = 0007, ALU_B_Sel = 00, clk = 1, ALUOut_CE = 1, RF_Write_en = 0, Rd_to_RF = 111, Rm_Rd_to_RF = 101, Rn_to_RF = 011, ALU_Control = 1, PC_to_ALU_A = 0000, ALU_A_Sel = 1, Instr = 0000, Imm_Sel = 00, Rd = 0000
OUT: ALU_Out = 0002, Imm_Out = 0000, NZVC = 0001, ReadA_data = 0005
IN: Write_Data = 0007, ALU_B_Sel = 00, clk = 1, ALUOut_CE = 0, RF_Write_en = 0, Rd_to_RF = 111, Rm_Rd_to_RF = 101, Rn_to_RF = 011, ALU_Control = 1, PC_to_ALU_A = 0000, ALU_A_Sel = 1, Instr = 0000, Imm_Sel = 00, Rd = 0000
OUT: ALU_Out = 0002, Imm_Out = 0000, NZVC = 0001, ReadA_data = 0005
IN: Write_Data = 0007, ALU_B_Sel = 00, clk = 1, ALUOut_CE = 0, RF_Write_en = 0, Rd_to_RF = 111, Rm_Rd_to_RF = 101, Rn_to_RF = 011, ALU_Control = 1, PC_to_ALU_A = 0000, ALU_A_Sel = 1, Instr = 0000, Imm_Sel = 00, Rd = 0000
OUT: ALU_Out = 0002, Imm_Out = 0000, NZVC = 0001, ReadA_data = 0005
IN: Write_Data = 0007, ALU_B_Sel = 00, clk = 1, ALUOut_CE = 0, RF_Write_en = 0, Rd_to_RF = 111, Rm_Rd_to_RF = 011, Rn_to_RF = 101, ALU_Control = 1, PC_to_ALU_A = 0000, ALU_A_Sel = 1, Instr = 0000, Imm_Sel = 00, Rd = 0000
OUT: ALU_Out = 0002, Imm_Out = 0000, NZVC = 1000, ReadA_data = 0003
IN: Write_Data = 0007, ALU_B_Sel = 00, clk = 1, ALUOut_CE = 1, RF_Write_en = 0, Rd_to_RF = 111, Rm_Rd_to_RF = 011, Rn_to_RF = 101, ALU_Control = 1, PC_to_ALU_A = 0000, ALU_A_Sel = 1, Instr = 0000, Imm_Sel = 00, Rd = 0000
OUT: ALU_Out = 0002, Imm_Out = 0000, NZVC = 1000, ReadA_data = 0003
IN: Write_Data = 0007, ALU_B_Sel = 00, clk = 1, ALUOut_CE = 1, RF_Write_en = 0, Rd_to_RF = 111, Rm_Rd_to_RF = 011, Rn_to_RF = 101, ALU_Control = 1, PC_to_ALU_A = 0000, ALU_A_Sel = 1, Instr = 0000, Imm_Sel = 00, Rd = 0000
OUT: ALU_Out = fffe, Imm_Out = 0000, NZVC = 1000, ReadA_data = 0003
IN: Write_Data = 0007, ALU_B_Sel = 00, clk = 1, ALUOut_CE = 0, RF_Write_en = 0, Rd_to_RF = 111, Rm_Rd_to_RF = 011, Rn_to_RF = 101, ALU_Control = 1, PC_to_ALU_A = 0000, ALU_A_Sel = 1, Instr = 0000, Imm_Sel = 00, Rd = 0000
OUT: ALU_Out = fffe, Imm_Out = 0000, NZVC = 1000, ReadA_data = 0003
IN: Write_Data = 0007, ALU_B_Sel = 00, clk = 1, ALUOut_CE = 0, RF_Write_en = 0, Rd_to_RF = 111, Rm_Rd_to_RF = 011, Rn_to_RF = 101, ALU_Control = 1, PC_to_ALU_A = 0000, ALU_A_Sel = 1, Instr = 0000, Imm_Sel = 00, Rd = 0000
OUT: ALU_Out = fffe, Imm_Out = 0000, NZVC = 1000, ReadA_data = 0003
IN: Write_Data = 0007, ALU_B_Sel = 00, clk = 1, ALUOut_CE = 0, RF_Write_en = 0, Rd_to_RF = 111, Rm_Rd_to_RF = 111, Rn_to_RF = 110, ALU_Control = 1, PC_to_ALU_A = 0000, ALU_A_Sel = 1, Instr = 0000, Imm_Sel = 00, Rd = 0000
OUT: ALU_Out = fffe, Imm_Out = 0000, NZVC = 0001, ReadA_data = 0007
IN: Write_Data = 0007, ALU_B_Sel = 00, clk = 1, ALUOut_CE = 1, RF_Write_en = 0, Rd_to_RF = 111, Rm_Rd_to_RF = 111, Rn_to_RF = 110, ALU_Control = 0, PC_to_ALU_A = 0000, ALU_A_Sel = 1, Instr = 0000, Imm_Sel = 00, Rd = 0000
OUT: ALU_Out = fffe, Imm_Out = 0000, NZVC = 0000, ReadA_data = 0007
IN: Write_Data = 0007, ALU_B_Sel = 00, clk = 1, ALUOut_CE = 1, RF_Write_en = 0, Rd_to_RF = 111, Rm_Rd_to_RF = 111, Rn_to_RF = 110, ALU_Control = 0, PC_to_ALU_A = 0000, ALU_A_Sel = 1, Instr = 0000, Imm_Sel = 00, Rd = 0000
OUT: ALU_Out = 000d, Imm_Out = 0000, NZVC = 0000, ReadA_data = 0007
IN: Write_Data = 0007, ALU_B_Sel = 00, clk = 1, ALUOut_CE = 0, RF_Write_en = 0, Rd_to_RF = 111, Rm_Rd_to_RF = 111, Rn_to_RF = 110, ALU_Control = 0, PC_to_ALU_A = 0000, ALU_A_Sel = 1, Instr = 0000, Imm_Sel = 00, Rd = 0000
OUT: ALU_Out = 000d, Imm_Out = 0000, NZVC = 0000, ReadA_data = 0007
IN: Write_Data = 0007, ALU_B_Sel = 00, clk = 1, ALUOut_CE = 0, RF_Write_en = 0, Rd_to_RF = 111, Rm_Rd_to_RF = 111, Rn_to_RF = 110, ALU_Control = 0, PC_to_ALU_A = 0000, ALU_A_Sel = 1, Instr = 0000, Imm_Sel = 00, Rd = 0000
OUT: ALU_Out = 000d, Imm_Out = 0000, NZVC = 0000, ReadA_data = 0007
